IE582 HW_2
…
#Transform to Longer Format

train_x_adj <- cbind(time_series_id=1:nrow(train_x), train_x)
train_y_adj <- cbind(time_series_id=1:nrow(train_y), train_y)
train_z_adj <- cbind(time_series_id=1:nrow(train_z), train_z)

train_x_adj_long<-pivot_longer(train_x_adj,-contains("s"),names_to="time_index",values_to="x",names_prefix ="t",names_transform=list("time_index"=as.integer)) 
train_y_adj_long<-pivot_longer(train_y_adj,-contains("s"),names_to="time_index",values_to="y",names_prefix ="t",names_transform=list("time_index"=as.integer))
train_z_adj_long<-pivot_longer(train_z_adj,-contains("s"),names_to="time_index",values_to="z",names_prefix ="t",names_transform=list("time_index"=as.integer))

train_xyz_long <- inner_join(train_x_adj_long,train_y_adj_long,by=c("time_series_id","class","time_index"))
train_xyz_long <- inner_join(train_xyz_long,train_z_adj_long,by=c("time_series_id","class","time_index"))
train_xyz_long

## # A tibble: 282,240 x 6
##    time_series_id class time_index      x     y     z
##             <int> <dbl>      <int>  <dbl> <dbl> <dbl>
##  1              1     6          1 -0.304 -2.12 -1.53
##  2              1     6          2 -0.304 -2.12 -1.53
##  3              1     6          3 -0.304 -2.12 -1.53
##  4              1     6          4 -0.304 -2.12 -1.53
##  5              1     6          5 -0.304 -2.12 -1.53
##  6              1     6          6 -0.304 -2.12 -1.53
##  7              1     6          7 -0.304 -2.12 -1.53
##  8              1     6          8 -0.304 -2.12 -1.53
##  9              1     6          9 -0.304 -2.12 -1.53
## 10              1     6         10 -0.304 -2.12 -1.53
## # ... with 282,230 more rows
…
